{
"frames": {
	"dark.PNG": {
		"frame": {"x":0, "y":209, "w":72, "h":67},
		"spriteSourceSize": {"x":0,"y":0,"w":72,"h":67},
		"sourceSize": {"w":72,"h":67}
	},
	"dark10.PNG": {
		"frame": {"x":142, "y":70, "w":65, "h":67},
		"spriteSourceSize": {"x":0,"y":0,"w":65,"h":67},
		"sourceSize": {"w":65,"h":67}
	},
	"dark11.PNG": {
		"frame": {"x":206, "y":249, "w":65, "h":73},
		"spriteSourceSize": {"x":0,"y":0,"w":65,"h":73},
		"sourceSize": {"w":65,"h":73}
	},
	"dark2.PNG": {
		"frame": {"x":71, "y":277, "w":67, "h":63},
		"spriteSourceSize": {"x":0,"y":0,"w":67,"h":63},
		"sourceSize": {"w":67,"h":63}
	},
	"dark3.PNG": {
		"frame": {"x":0, "y":277, "w":70, "h":67},
		"spriteSourceSize": {"x":0,"y":0,"w":70,"h":67},
		"sourceSize": {"w":70,"h":67}
	},
	"dark4.PNG": {
		"frame": {"x":139, "y":270, "w":66, "h":73},
		"spriteSourceSize": {"x":0,"y":0,"w":66,"h":73},
		"sourceSize": {"w":66,"h":73}
	},
	"dark5.PNG": {
		"frame": {"x":0, "y":345, "w":69, "h":70},
		"spriteSourceSize": {"x":0,"y":0,"w":69,"h":70},
		"sourceSize": {"w":69,"h":70}
	},
	"dark6.PNG": {
		"frame": {"x":387, "y":0, "w":52, "h":65},
		"spriteSourceSize": {"x":0,"y":0,"w":52,"h":65},
		"sourceSize": {"w":52,"h":65}
	},
	"dark7 .PNG": {
		"frame": {"x":330, "y":0, "w":56, "h":68},
		"spriteSourceSize": {"x":0,"y":0,"w":56,"h":68},
		"sourceSize": {"w":56,"h":68}
	},
	"dark8 .PNG": {
		"frame": {"x":73, "y":209, "w":67, "h":60},
		"spriteSourceSize": {"x":0,"y":0,"w":67,"h":60},
		"sourceSize": {"w":67,"h":60}
	},
	"dark9.PNG": {
		"frame": {"x":272, "y":192, "w":60, "h":77},
		"spriteSourceSize": {"x":0,"y":0,"w":60,"h":77},
		"sourceSize": {"w":60,"h":77}
	},
	"poison.PNG": {
		"frame": {"x":208, "y":60, "w":63, "h":59},
		"spriteSourceSize": {"x":0,"y":0,"w":63,"h":59},
		"sourceSize": {"w":63,"h":59}
	},
	"poison10.PNG": {
		"frame": {"x":272, "y":0, "w":57, "h":73},
		"spriteSourceSize": {"x":0,"y":0,"w":57,"h":73},
		"sourceSize": {"w":57,"h":73}
	},
	"poison11.PNG": {
		"frame": {"x":208, "y":120, "w":62, "h":65},
		"spriteSourceSize": {"x":0,"y":0,"w":62,"h":65},
		"sourceSize": {"w":62,"h":65}
	},
	"poison12.PNG": {
		"frame": {"x":271, "y":120, "w":61, "h":71},
		"spriteSourceSize": {"x":0,"y":0,"w":61,"h":71},
		"sourceSize": {"w":61,"h":71}
	},
	"poison13.PNG": {
		"frame": {"x":82, "y":0, "w":66, "h":69},
		"spriteSourceSize": {"x":0,"y":0,"w":66,"h":69},
		"sourceSize": {"w":66,"h":69}
	},
	"poison2.PNG": {
		"frame": {"x":75, "y":131, "w":66, "h":55},
		"spriteSourceSize": {"x":0,"y":0,"w":66,"h":55},
		"sourceSize": {"w":66,"h":55}
	},
	"poison3.PNG": {
		"frame": {"x":208, "y":186, "w":61, "h":62},
		"spriteSourceSize": {"x":0,"y":0,"w":61,"h":62},
		"sourceSize": {"w":61,"h":62}
	},
	"poison4.PNG": {
		"frame": {"x":272, "y":336, "w":58, "h":61},
		"spriteSourceSize": {"x":0,"y":0,"w":58,"h":61},
		"sourceSize": {"w":58,"h":61}
	},
	"poison5.PNG": {
		"frame": {"x":215, "y":0, "w":51, "h":58},
		"spriteSourceSize": {"x":0,"y":0,"w":51,"h":58},
		"sourceSize": {"w":51,"h":58}
	},
	"poison6.PNG": {
		"frame": {"x":141, "y":187, "w":66, "h":61},
		"spriteSourceSize": {"x":0,"y":0,"w":66,"h":61},
		"sourceSize": {"w":66,"h":61}
	},
	"poison7.PNG": {
		"frame": {"x":0, "y":75, "w":75, "h":55},
		"spriteSourceSize": {"x":0,"y":0,"w":75,"h":55},
		"sourceSize": {"w":75,"h":55}
	},
	"poison8.PNG": {
		"frame": {"x":149, "y":0, "w":65, "h":59},
		"spriteSourceSize": {"x":0,"y":0,"w":65,"h":59},
		"sourceSize": {"w":65,"h":59}
	},
	"poison9.PNG": {
		"frame": {"x":272, "y":270, "w":59, "h":65},
		"spriteSourceSize": {"x":0,"y":0,"w":59,"h":65},
		"sourceSize": {"w":59,"h":65}
	},
	"stand.PNG": {
		"frame": {"x":332, "y":270, "w":56, "h":63},
		"spriteSourceSize": {"x":0,"y":0,"w":56,"h":63},
		"sourceSize": {"w":56,"h":63}
	},
	"vitality.PNG": {
		"frame": {"x":331, "y":336, "w":56, "h":66},
		"spriteSourceSize": {"x":0,"y":0,"w":56,"h":66},
		"sourceSize": {"w":56,"h":66}
	},
	"vitalty10.PNG": {
		"frame": {"x":388, "y":66, "w":43, "h":71},
		"spriteSourceSize": {"x":0,"y":0,"w":43,"h":71},
		"sourceSize": {"w":43,"h":71}
	},
	"vitalty11.PNG": {
		"frame": {"x":82, "y":70, "w":57, "h":58},
		"spriteSourceSize": {"x":0,"y":0,"w":57,"h":58},
		"sourceSize": {"w":57,"h":58}
	},
	"vitalty2.PNG": {
		"frame": {"x":207, "y":323, "w":64, "h":71},
		"spriteSourceSize": {"x":0,"y":0,"w":64,"h":71},
		"sourceSize": {"w":64,"h":71}
	},
	"vitalty3.PNG": {
		"frame": {"x":140, "y":344, "w":66, "h":78},
		"spriteSourceSize": {"x":0,"y":0,"w":66,"h":78},
		"sourceSize": {"w":66,"h":78}
	},
	"vitalty4.PNG": {
		"frame": {"x":70, "y":345, "w":69, "h":77},
		"spriteSourceSize": {"x":0,"y":0,"w":69,"h":77},
		"sourceSize": {"w":69,"h":77}
	},
	"vitalty5.PNG": {
		"frame": {"x":0, "y":131, "w":74, "h":77},
		"spriteSourceSize": {"x":0,"y":0,"w":74,"h":77},
		"sourceSize": {"w":74,"h":77}
	},
	"vitalty6.PNG": {
		"frame": {"x":0, "y":0, "w":81, "h":74},
		"spriteSourceSize": {"x":0,"y":0,"w":81,"h":74},
		"sourceSize": {"w":81,"h":74}
	},
	"vitalty7.PNG": {
		"frame": {"x":333, "y":69, "w":54, "h":68},
		"spriteSourceSize": {"x":0,"y":0,"w":54,"h":68},
		"sourceSize": {"w":54,"h":68}
	},
	"vitalty8.PNG": {
		"frame": {"x":333, "y":138, "w":54, "h":66},
		"spriteSourceSize": {"x":0,"y":0,"w":54,"h":66},
		"sourceSize": {"w":54,"h":66}
	},
	"vitalty9.PNG": {
		"frame": {"x":388, "y":334, "w":50, "h":67},
		"spriteSourceSize": {"x":0,"y":0,"w":50,"h":67},
		"sourceSize": {"w":50,"h":67}
	}

},
"meta": {
	"image": "sprites.png",
	"size": {"w": 440, "h": 423},
	"scale": "1"
}
}